{
    "name": "rust",
    "image": "mcr.microsoft.com/devcontainers/rust:1-1-bullseye",
    "customizations": {
        "vscode": {
            "extensions": [
                "ZhangYue.rust-mod-generator",
                "tamasfe.even-better-toml",
                "esbenp.prettier-vscode",
                "streetsidesoftware.code-spell-checker"
            ]
        }
    }
}